13 Relational data | R for Data Science: Exercise Solutions
…
13.5 Filtering Joins

Exercise 13.5.1

What does it mean for a flight to have a missing tailnum?
What do the tail numbers that don’t have a matching record in planes have in common?
(Hint: one variable explains ~90% of the problems.)

American Airlines (AA) and Envoy Airlines (MQ) don’t report tail numbers.

flights %>%
  anti_join(planes, by = "tailnum") %>%
  count(carrier, sort = TRUE)
#> # A tibble: 10 x 2
#>   carrier     n
#>   <chr>   <int>
#> 1 MQ      25397
#> 2 AA      22558
#> 3 UA       1693
#> 4 9E       1044
#> 5 B6        830
#> 6 US        699
#> # … with 4 more rows
…
Why does the above code join on make and model and not just model?
It is possible for two car brands (make) to produce a car with the same name (model).
In both the vehicles and common data we can find some examples.
For example, “Truck 4WD” is produced by many different brands.

fueleconomy::vehicles %>%
  distinct(model, make) %>%
  group_by(model) %>%
  filter(n() > 1) %>%
  arrange(model)
#> # A tibble: 126 x 2
#> # Groups:   model [60]
#>   make                   model              
#>   <chr>                  <chr>              
#> 1 Audi                   200                
#> 2 Chrysler               200                
#> 3 Mcevoy Motors          240 DL/240 GL Wagon
#> 4 Volvo                  240 DL/240 GL Wagon
#> 5 Lambda Control Systems 300E               
#> 6 Mercedes-Benz          300E               
#> # … with 120 more rows

fueleconomy::common %>%
  distinct(model, make) %>%
  group_by(model) %>%
  filter(n() > 1) %>%
  arrange(model)
#> # A tibble: 8 x 2
#> # Groups:   model [3]
#>   make       model    
#>   <chr>      <chr>    
#> 1 Dodge      Colt     
#> 2 Plymouth   Colt     
#> 3 Mitsubishi Truck 2WD
#> 4 Nissan     Truck 2WD
#> 5 Toyota     Truck 2WD
#> 6 Mitsubishi Truck 4WD
#> # … with 2 more rows
…
The names of airlines are easier to understand than the two-letter carrier codes.
The airlines data frame contains the names of the airlines.

carrier_transfer_tbl <- planes_carriers %>%
  # keep only planes which have flown for more than one airline
  group_by(tailnum) %>%
  filter(n() > 1) %>%
  # join with airlines to get airline names
  left_join(airlines, by = "carrier") %>%
  arrange(tailnum, carrier)

carrier_transfer_tbl
#> # A tibble: 34 x 3
#> # Groups:   tailnum [17]
#>   carrier tailnum name                    
#>   <chr>   <chr>   <chr>                   
#> 1 9E      N146PQ  Endeavor Air Inc.       
#> 2 EV      N146PQ  ExpressJet Airlines Inc.
#> 3 9E      N153PQ  Endeavor Air Inc.       
#> 4 EV      N153PQ  ExpressJet Airlines Inc.
#> 5 9E      N176PQ  Endeavor Air Inc.       
#> 6 EV      N176PQ  ExpressJet Airlines Inc.
#> # … with 28 more rows
…
