…
1.  The flights that flew to Houston were are those flights where the 
    destination (`dest`) is either "IAH" or "HOU".
    
    ```r
    filter(flights, dest == "IAH" | dest == "HOU")
    #> # A tibble: 9,313 x 19
    #>    year month   day dep_time sched_dep_time dep_delay arr_time
    #>   <int> <int> <int>    <int>          <int>     <dbl>    <int>
    #> 1  2013     1     1      517            515         2      830
    #> 2  2013     1     1      533            529         4      850
    #> 3  2013     1     1      623            627        -4      933
    #> 4  2013     1     1      728            732        -4     1041
    #> 5  2013     1     1      739            739         0     1104
    #> 6  2013     1     1      908            908         0     1228
    #> # … with 9,307 more rows, and 12 more variables: sched_arr_time <int>,
    #> #   arr_delay <dbl>, carrier <chr>, flight <int>, tailnum <chr>,
    #> #   origin <chr>, dest <chr>, air_time <dbl>, distance <dbl>, hour <dbl>,
    #> #   minute <dbl>, time_hour <dttm>
    ```
    However, using `%in%` is more compact and would scale to cases where 
    there were more than two airports we were interested in.
    
    ```r
    filter(flights, dest %in% c("IAH", "HOU"))
    #> # A tibble: 9,313 x 19
    #>    year month   day dep_time sched_dep_time dep_delay arr_time
    #>   <int> <int> <int>    <int>          <int>     <dbl>    <int>
    #> 1  2013     1     1      517            515         2      830
    #> 2  2013     1     1      533            529         4      850
    #> 3  2013     1     1      623            627        -4      933
    #> 4  2013     1     1      728            732        -4     1041
    #> 5  2013     1     1      739            739         0     1104
    #> 6  2013     1     1      908            908         0     1228
    #> # … with 9,307 more rows, and 12 more variables: sched_arr_time <int>,
    #> #   arr_delay <dbl>, carrier <chr>, flight <int>, tailnum <chr>,
    #> #   origin <chr>, dest <chr>, air_time <dbl>, distance <dbl>, hour <dbl>,
    #> #   minute <dbl>, time_hour <dttm>
    ```
    

1.  In the `flights` dataset, the column `carrier` indicates the airline, but it uses two-character carrier codes.
    We can find the carrier codes for the airlines in the `airlines` dataset.
    Since the carrier code dataset only has 16 rows, and the names
    of the airlines in that dataset are not exactly "United", "American", or "Delta",
    it is easiest to manually look up their carrier codes in that data.

    
    ```r
    airlines
    #> # A tibble: 16 x 2
    #>   carrier name                    
    #>   <chr>   <chr>                   
    #> 1 9E      Endeavor Air Inc.       
    #> 2 AA      American Airlines Inc.  
    #> 3 AS      Alaska Airlines Inc.    
    #> 4 B6      JetBlue Airways         
    #> 5 DL      Delta Air Lines Inc.    
    #> 6 EV      ExpressJet Airlines Inc.
    #> # … with 10 more rows
    ```
…
1.  Flights that arrived more than two hours late, but didn’t leave late will 
    have an arrival delay of more than 120 minutes (`dep_delay > 120`) and 
    a non-positive departure delay (`dep_delay <= 0`).
    
    ```r
    filter(flights, dep_delay <= 0, arr_delay > 120)
    #> # A tibble: 29 x 19
    #>    year month   day dep_time sched_dep_time dep_delay arr_time
    #>   <int> <int> <int>    <int>          <int>     <dbl>    <int>
    #> 1  2013     1    27     1419           1420        -1     1754
    #> 2  2013    10     7     1350           1350         0     1736
    #> 3  2013    10     7     1357           1359        -2     1858
    #> 4  2013    10    16      657            700        -3     1258
    #> 5  2013    11     1      658            700        -2     1329
    #> 6  2013     3    18     1844           1847        -3       39
    #> # … with 23 more rows, and 12 more variables: sched_arr_time <int>,
    #> #   arr_delay <dbl>, carrier <chr>, flight <int>, tailnum <chr>,
    #> #   origin <chr>, dest <chr>, air_time <dbl>, distance <dbl>, hour <dbl>,
    #> #   minute <dbl>, time_hour <dttm>
    ```

1.  Were delayed by at least an hour, but made up over 30 minutes in flight.
    If a flight was delayed by at least an hour, then `dep_delay >= 60`. 
    If the flight didn't make up any time in the air, then its arrival would be delayed by the same amount as its departure, meaning `dep_delay == arr_delay`, or alternatively, `dep_delay - arr_delay == 0`. 
    If it makes up over 30 minutes in the air, then the arrival delay must be at least 30 minutes less than the departure delay, which is stated as `dep_delay - arr_delay > 30`.
    
    ```r
    filter(flights, dep_delay >= 60, dep_delay - arr_delay > 30)
    #> # A tibble: 1,844 x 19
    #>    year month   day dep_time sched_dep_time dep_delay arr_time
    #>   <int> <int> <int>    <int>          <int>     <dbl>    <int>
    #> 1  2013     1     1     2205           1720       285       46
    #> 2  2013     1     1     2326           2130       116      131
    #> 3  2013     1     3     1503           1221       162     1803
    #> 4  2013     1     3     1839           1700        99     2056
    #> 5  2013     1     3     1850           1745        65     2148
    #> 6  2013     1     3     1941           1759       102     2246
    #> # … with 1,838 more rows, and 12 more variables: sched_arr_time <int>,
    #> #   arr_delay <dbl>, carrier <chr>, flight <int>, tailnum <chr>,
    #> #   origin <chr>, dest <chr>, air_time <dbl>, distance <dbl>, hour <dbl>,
    #> #   minute <dbl>, time_hour <dttm>
    ```

1.  Finding flights that departed between midnight and 6 am is complicated by 
    the way in which times are represented in the data. 
    In `dep_time`, midnight is represented by `2400`, not `0`.
    This means we cannot simply check that `dep_time < 600`, because we also have
    to consider the special case of midnight.
    
    
    ```r
    filter(flights, dep_time <= 600 | dep_time == 2400)
    #> # A tibble: 9,373 x 19
    #>    year month   day dep_time sched_dep_time dep_delay arr_time
    #>   <int> <int> <int>    <int>          <int>     <dbl>    <int>
    #> 1  2013     1     1      517            515         2      830
    #> 2  2013     1     1      533            529         4      850
    #> 3  2013     1     1      542            540         2      923
    #> 4  2013     1     1      544            545        -1     1004
    #> 5  2013     1     1      554            600        -6      812
    #> 6  2013     1     1      554            558        -4      740
    #> # … with 9,367 more rows, and 12 more variables: sched_arr_time <int>,
    #> #   arr_delay <dbl>, carrier <chr>, flight <int>, tailnum <chr>,
    #> #   origin <chr>, dest <chr>, air_time <dbl>, distance <dbl>, hour <dbl>,
    #> #   minute <dbl>, time_hour <dttm>
    ```
…
    ```r
    c(600, 1200, 2400) %% 2400
    #> [1]  600 1200    0
    ```

    Since `2400 %% 2400 == 0` and all other times are left unchanged, 
    we can compare the result of the modulo operation to `600`,

    
    ```r
    filter(flights, dep_time %% 2400 <= 600)
    #> # A tibble: 9,373 x 19
    #>    year month   day dep_time sched_dep_time dep_delay arr_time
    #>   <int> <int> <int>    <int>          <int>     <dbl>    <int>
    #> 1  2013     1     1      517            515         2      830
    #> 2  2013     1     1      533            529         4      850
    #> 3  2013     1     1      542            540         2      923
    #> 4  2013     1     1      544            545        -1     1004
    #> 5  2013     1     1      554            600        -6      812
    #> 6  2013     1     1      554            558        -4      740
    #> # … with 9,367 more rows, and 12 more variables: sched_arr_time <int>,
    #> #   arr_delay <dbl>, carrier <chr>, flight <int>, tailnum <chr>,
    #> #   origin <chr>, dest <chr>, air_time <dbl>, distance <dbl>, hour <dbl>,
    #> #   minute <dbl>, time_hour <dttm>
    ```
…
</div>

### Exercise <span class="exercise-number">5.2.3</span> {.unnumbered .exercise}

<div class="question">
How many flights have a missing `dep_time`? What other variables are missing? What might these rows represent?
</div>

<div class="answer">

Find the rows of flights with a missing departure time (`dep_time`) using the `is.na()` function.

```r
filter(flights, is.na(dep_time))
#> # A tibble: 8,255 x 19
#>    year month   day dep_time sched_dep_time dep_delay arr_time
#>   <int> <int> <int>    <int>          <int>     <dbl>    <int>
#> 1  2013     1     1       NA           1630        NA       NA
#> 2  2013     1     1       NA           1935        NA       NA
#> 3  2013     1     1       NA           1500        NA       NA
#> 4  2013     1     1       NA            600        NA       NA
#> 5  2013     1     2       NA           1540        NA       NA
#> 6  2013     1     2       NA           1620        NA       NA
#> # … with 8,249 more rows, and 12 more variables: sched_arr_time <int>,
#> #   arr_delay <dbl>, carrier <chr>, flight <int>, tailnum <chr>,
#> #   origin <chr>, dest <chr>, air_time <dbl>, distance <dbl>, hour <dbl>,
#> #   minute <dbl>, time_hour <dttm>
```
…
1.  The flight passes midnight, so `arr_time < dep_time`. 
    In these cases, the airtime will be off by 24 hours (1,440 minutes).

1.  The flight crosses time zones, and the total air time will be off by hours (multiples of 60). Additionally, all these discrepancies should be positive.
    All the flights in the **nycflights13** data departed from New York City and are domestic (within the US), meaning that flights will all be to the same or more
    westerly time zones.

Both of these explanations have clear patterns that I would expect to see if they 
were true. 
In particular, in both cases, all differences should be divisible by 60.
However, there are many flights in which the difference between `arr_time` and `dest_time` is not divisible by 60.

```r
filter(flights_airtime, air_time_diff %% 60 == 0)
#> # A tibble: 6,823 x 22
#>    year month   day dep_time sched_dep_time dep_delay arr_time
#>   <int> <int> <int>    <int>          <int>     <dbl>    <int>
#> 1  2013     1     1      608            600         8      807
#> 2  2013     1     1      746            746         0     1119
#> 3  2013     1     1      857            900        -3     1516
#> 4  2013     1     1      903            820        43     1045
#> 5  2013     1     1      908            910        -2     1020
#> 6  2013     1     1     1158           1200        -2     1256
#> # … with 6,817 more rows, and 15 more variables: sched_arr_time <int>,
#> #   arr_delay <dbl>, carrier <chr>, flight <int>, tailnum <chr>,
#> #   origin <chr>, dest <chr>, air_time <dbl>, distance <dbl>, hour <dbl>,
#> #   minute <dbl>, time_hour <dttm>, dep_time_min <dbl>,
#> #   arr_time_min <dbl>, air_time_diff <dbl>
```
…
```r
flights_deptime <-
  mutate(flights,
    dep_time_min = (dep_time %/% 100 * 60 + dep_time %% 100) %% 1440,
    sched_dep_time_min = (sched_dep_time %/% 100 * 60 +
      sched_dep_time %% 100) %% 1440,
    dep_delay_diff = dep_delay - dep_time_min + sched_dep_time_min
  )
```
Does `dep_delay_diff` equal zero for all rows? 

```r
filter(flights_deptime, dep_delay_diff != 0)
#> # A tibble: 1,236 x 22
#>    year month   day dep_time sched_dep_time dep_delay arr_time
#>   <int> <int> <int>    <int>          <int>     <dbl>    <int>
#> 1  2013     1     1      848           1835       853     1001
#> 2  2013     1     2       42           2359        43      518
#> 3  2013     1     2      126           2250       156      233
#> 4  2013     1     3       32           2359        33      504
#> 5  2013     1     3       50           2145       185      203
#> 6  2013     1     3      235           2359       156      700
#> # … with 1,230 more rows, and 15 more variables: sched_arr_time <int>,
#> #   arr_delay <dbl>, carrier <chr>, flight <int>, tailnum <chr>,
#> #   origin <chr>, dest <chr>, air_time <dbl>, distance <dbl>, hour <dbl>,
#> #   minute <dbl>, time_hour <dttm>, dep_time_min <dbl>,
#> #   sched_dep_time_min <dbl>, dep_delay_diff <dbl>
```
…
<div class="question">
Find the 10 most delayed flights using a ranking function. How do you want to handle ties? Carefully read the documentation for `min_rank()`.
</div>

<div class="answer">

I'd want to handle ties by taking the minimum of tied values. If three flights
have the same value and are the most delayed, we would say they are tied for
first, not tied for third or second.

```r
flights_delayed <- mutate(flights, dep_delay_rank = min_rank(-dep_delay))
flights_delayed <- filter(flights_delayed, dep_delay_rank <= 20)
arrange(flights_delayed, dep_delay_rank)
#> # A tibble: 20 x 20
#>    year month   day dep_time sched_dep_time dep_delay arr_time
#>   <int> <int> <int>    <int>          <int>     <dbl>    <int>
#> 1  2013     1     9      641            900      1301     1242
#> 2  2013     6    15     1432           1935      1137     1607
#> 3  2013     1    10     1121           1635      1126     1239
#> 4  2013     9    20     1139           1845      1014     1457
#> 5  2013     7    22      845           1600      1005     1044
#> 6  2013     4    10     1100           1900       960     1342
#> # … with 14 more rows, and 13 more variables: sched_arr_time <int>,
#> #   arr_delay <dbl>, carrier <chr>, flight <int>, tailnum <chr>,
#> #   origin <chr>, dest <chr>, air_time <dbl>, distance <dbl>, hour <dbl>,
#> #   minute <dbl>, time_hour <dttm>, dep_delay_rank <int>
```
…
<div class="answer">


```r
not_canceled <- flights %>%
  filter(!is.na(dep_delay), !is.na(arr_delay))
```

The first expression is the following.


```r
not_canceled %>%
  count(dest)
#> # A tibble: 104 x 2
#>   dest      n
#>   <chr> <int>
#> 1 ABQ     254
#> 2 ACK     264
#> 3 ALB     418
#> 4 ANC       8
#> 5 ATL   16837
#> 6 AUS    2411
#> # … with 98 more rows
```

The `count()` function counts the number of instances within each group of variables.
Instead of using the `count()` function,we can combine the `group_by()` and `summarise()` verbs.


```r
not_canceled %>%
  group_by(dest) %>%
  summarise(n = length(dest))
#> # A tibble: 104 x 2
#>   dest      n
#>   <chr> <int>
#> 1 ABQ     254
#> 2 ACK     264
#> 3 ALB     418
#> 4 ANC       8
#> 5 ATL   16837
#> 6 AUS    2411
#> # … with 98 more rows
```

An alternative method for getting the number of observations in a data frame is the function `n()`.


```r
not_canceled %>%
  group_by(dest) %>%
  summarise(n = n())
#> # A tibble: 104 x 2
#>   dest      n
#>   <chr> <int>
#> 1 ABQ     254
#> 2 ACK     264
#> 3 ALB     418
#> 4 ANC       8
#> 5 ATL   16837
#> 6 AUS    2411
#> # … with 98 more rows
```

Another alternative to `count()` is to use the combination of the `group_by()` and `tally()` verbs.
In fact, `count()` is effectively a short-cut for `group_by()` followed by `tally()`.


```r
not_canceled %>%
  group_by(tailnum) %>%
  tally()
#> # A tibble: 4,037 x 2
#>   tailnum     n
#>   <chr>   <int>
#> 1 D942DN      4
#> 2 N0EGMQ    352
#> 3 N10156    145
#> 4 N102UW     48
#> 5 N103US     46
#> 6 N104UW     46
#> # … with 4,031 more rows
```

The second expression also uses the `count()` function, but adds a `wt` argument.


```r
not_canceled %>%
  count(tailnum, wt = distance)
#> # A tibble: 4,037 x 2
#>   tailnum      n
#>   <chr>    <dbl>
#> 1 D942DN    3418
#> 2 N0EGMQ  239143
#> 3 N10156  109664
#> 4 N102UW   25722
#> 5 N103US   24619
#> 6 N104UW   24616
#> # … with 4,031 more rows
```

As before, we can replicate `count()` by combining the `group_by()` and `summarise()` verbs.
But this time instead of using `length()`, we will use `sum()` with the weighting variable.


```r
not_canceled %>%
  group_by(tailnum) %>%
  summarise(n = sum(distance))
#> # A tibble: 4,037 x 2
#>   tailnum      n
#>   <chr>    <dbl>
#> 1 D942DN    3418
#> 2 N0EGMQ  239143
#> 3 N10156  109664
#> 4 N102UW   25722
#> 5 N103US   24619
#> 6 N104UW   24616
#> # … with 4,031 more rows
```

Like the previous example, we can also use the combination `group_by()` and `tally()`.
Any arguments to `tally()` are summed.


```r
not_canceled %>%
  group_by(tailnum) %>%
  tally(distance)
#> # A tibble: 4,037 x 2
#>   tailnum      n
#>   <chr>    <dbl>
#> 1 D942DN    3418
#> 2 N0EGMQ  239143
#> 3 N10156  109664
#> 4 N102UW   25722
#> 5 N103US   24619
#> 6 N104UW   24616
#> # … with 4,031 more rows
```
…
<div class="answer">

If a flight never departs, then it won't arrive.
A flight could also depart and not arrive if it crashes, or if it is redirected and lands in an airport other than its intended destination.
So the most important column is `arr_delay`, which indicates the amount of delay in arrival.

```r
filter(flights, !is.na(dep_delay), is.na(arr_delay)) %>%
  select(dep_time, arr_time, sched_arr_time, dep_delay, arr_delay)
#> # A tibble: 1,175 x 5
#>   dep_time arr_time sched_arr_time dep_delay arr_delay
#>      <int>    <int>          <int>     <dbl>     <dbl>
#> 1     1525     1934           1805        -5        NA
#> 2     1528     2002           1647        29        NA
#> 3     1740     2158           2020        -5        NA
#> 4     1807     2251           2103        29        NA
#> 5     1939       29           2151        59        NA
#> 6     1952     2358           2207        22        NA
#> # … with 1,169 more rows
```
…
<div class="answer">


```r
flights %>%
  group_by(carrier) %>%
  summarise(arr_delay = mean(arr_delay, na.rm = TRUE)) %>%
  arrange(desc(arr_delay))
#> # A tibble: 16 x 2
#>   carrier arr_delay
#>   <chr>       <dbl>
#> 1 F9           21.9
#> 2 FL           20.1
#> 3 EV           15.8
#> 4 YV           15.6
#> 5 OO           11.9
#> 6 MQ           10.8
#> # … with 10 more rows
```
…
  # average delay of each carrier - average delay of other carriers
  ungroup() %>%
  mutate(
    arr_delay_others = (arr_delay_total - arr_delay) /
      (flights_total - flights),
    arr_delay_mean = arr_delay / flights,
    arr_delay_diff = arr_delay_mean - arr_delay_others
  ) %>%
  # remove NaN values (when there is only one carrier)
  filter(is.finite(arr_delay_diff)) %>%
  # average over all airports it flies to
  group_by(carrier) %>%
  summarise(arr_delay_diff = mean(arr_delay_diff)) %>%
  arrange(desc(arr_delay_diff))
#> # A tibble: 15 x 2
#>   carrier arr_delay_diff
#>   <chr>            <dbl>
#> 1 OO              27.3  
#> 2 F9              17.3  
#> 3 EV              11.0  
#> 4 B6               6.41 
#> 5 FL               2.57 
#> 6 VX              -0.202
#> # … with 9 more rows
```
…
```r
flights %>%
  # unknown why flights have sched_arr_time, arr_time but missing arr_delay.
  filter(!is.na(arr_delay)) %>%
  mutate(
    canceled = is.na(arr_time),
    late = !canceled & arr_delay > 0
  ) %>%
  group_by(tailnum) %>%
  summarise(on_time = mean(!late)) %>%
  filter(min_rank(on_time) <= 1)
#> # A tibble: 104 x 2
#>   tailnum on_time
#>   <chr>     <dbl>
#> 1 N121DE        0
#> 2 N136DL        0
#> 3 N143DA        0
#> 4 N17627        0
#> 5 N240AT        0
#> 6 N26906        0
#> # … with 98 more rows
```
…
<div class="answer">

Let's group by the hour of the flight.
The earlier the flight is scheduled, the lower its expected delay.
This is intuitive as delays will affect later flights. 
Morning flights have fewer (if any) previous flights that can delay them.


```r
flights %>%
  group_by(hour) %>%
  summarise(arr_delay = mean(arr_delay, na.rm = TRUE)) %>%
  arrange(arr_delay)
#> # A tibble: 20 x 2
#>    hour arr_delay
#>   <dbl>     <dbl>
#> 1     7    -5.30 
#> 2     5    -4.80 
#> 3     6    -3.38 
#> 4     9    -1.45 
#> 5     8    -1.11 
#> 6    10     0.954
#> # … with 14 more rows
```
…
